<?xml version="1.0" encoding="iso-8859-1"?>
<!-- Generator: Adobe Illustrator 19.0.0, SVG Export Plug-In . SVG Version: 6.00 Build 0)  -->
<svg version="1.1" id="Capa_1" xmlns="http://www.w3.org/2000/svg" xmlns:xlink="http://www.w3.org/1999/xlink" x="0px" y="0px"
	 viewBox="0 0 512 512" style="enable-background:new 0 0 512 512;" xml:space="preserve">
<g>
	<g>
		<path d="M501.961,142.365h-48.51V80.354l50.822-29.367c3.104-1.794,5.017-5.107,5.017-8.693c0-3.585-1.912-6.898-5.018-8.692
			L448.434,1.346c-3.105-1.794-6.933-1.794-10.04-0.002c-3.107,1.793-5.021,5.108-5.021,8.695v64.522v67.805h-30.118
			c-5.545,0-10.039,4.496-10.039,10.039v131.534c0,75.661-61.554,137.216-137.216,137.216S118.784,359.6,118.784,283.939V152.404
			c0-5.544-4.495-10.039-10.039-10.039H78.627v-62.01l50.832-29.367c3.105-1.794,5.018-5.108,5.018-8.694
			c0-3.585-1.914-6.899-5.019-8.692L73.61,1.346c-3.106-1.793-6.933-1.795-10.041-0.001c-3.106,1.793-5.02,5.107-5.02,8.694v64.522
			v67.805H10.039C4.495,142.366,0,146.861,0,152.405v349.555C0,507.504,4.495,512,10.039,512h491.922
			c5.545,0,10.039-4.496,10.039-10.039V152.405C512,146.86,507.505,142.365,501.961,142.365z M453.451,27.432l25.731,14.864
			l-25.731,14.869V27.432z M78.627,27.43l25.739,14.866l-25.739,14.87V27.43z M491.922,491.921H20.078V162.444h78.627v121.495
			c0,86.733,70.563,157.294,157.294,157.294s157.294-70.562,157.294-157.294V162.443h78.627V491.921z"/>
	</g>
</g>
<g>
	<g>
		<path d="M118.975,447.079H57.234c-5.545,0-10.039,4.496-10.039,10.039s4.495,10.039,10.039,10.039h61.741
			c5.545,0,10.039-4.496,10.039-10.039S124.519,447.079,118.975,447.079z"/>
	</g>
</g>
<g>
	<g>
		<path d="M146.02,447.079c-12.919,0-12.941,20.078,0,20.078C158.94,467.158,158.961,447.079,146.02,447.079z"/>
	</g>
</g>
<g>
</g>
<g>
</g>
<g>
</g>
<g>
</g>
<g>
</g>
<g>
</g>
<g>
</g>
<g>
</g>
<g>
</g>
<g>
</g>
<g>
</g>
<g>
</g>
<g>
</g>
<g>
</g>
<g>
</g>
</svg>
