<?xml version="1.0" encoding="iso-8859-1"?>
<!-- Generator: Adobe Illustrator 19.0.0, SVG Export Plug-In . SVG Version: 6.00 Build 0)  -->
<svg version="1.1" id="Layer_1" xmlns="http://www.w3.org/2000/svg" xmlns:xlink="http://www.w3.org/1999/xlink" x="0px" y="0px"
	 viewBox="0 0 512 512" style="enable-background:new 0 0 512 512;" xml:space="preserve">
<g>
	<g>
		<path d="M486.4,358.4c-14.114,0-25.6,11.486-25.6,25.6c0,32.939-26.803,59.733-59.733,59.733h-51.2
			c-4.719,0-8.533,3.823-8.533,8.533c0,4.71,3.814,8.533,8.533,8.533h51.2c42.351,0,76.8-34.458,76.8-76.8
			c0-4.702,3.823-8.533,8.533-8.533s8.533,3.831,8.533,8.533c0,51.755-42.112,93.867-93.867,93.867H25.6
			c-4.71,0-8.533-3.831-8.533-8.533c0-4.702,3.823-8.533,8.533-8.533h17.067c4.719,0,8.533-3.823,8.533-8.533v-59.733h256v51.2H76.8
			c-4.719,0-8.533,3.823-8.533,8.533c0,4.71,3.814,8.533,8.533,8.533h238.933c4.719,0,8.533-3.823,8.533-8.533v-59.733H384
			c14.114,0,25.6-11.486,25.6-25.6v-17.067c0-57.813-43.068-101.325-109.534-110.814L204.8,223.172V110.933
			c0-4.71-3.814-8.533-8.533-8.533s-8.533,3.823-8.533,8.533v8.533h-25.6c-4.719,0-8.533,3.823-8.533,8.533
			c0,4.71,3.814,8.533,8.533,8.533h25.6v34.133h-25.6c-4.719,0-8.533,3.823-8.533,8.533c0,4.71,3.814,8.533,8.533,8.533h25.6v34.133
			h-25.6c-4.719,0-8.533,3.823-8.533,8.533c0,4.71,3.814,8.533,8.533,8.533h33.434l101.888,16.981
			c54.349,7.765,90.573,40.866,94.669,85.419H84.83c-3.942-35.533-32.222-63.812-67.763-67.763V34.133h179.2
			c4.71,0,8.533,3.831,8.533,8.533v17.067c0,4.702-3.823,8.533-8.533,8.533h-153.6c-4.719,0-8.533,3.823-8.533,8.533
			s3.814,8.533,8.533,8.533h153.6c14.114,0,25.6-11.486,25.6-25.6V42.667c0-14.114-11.486-25.6-25.6-25.6H8.533
			C3.814,17.067,0,20.89,0,25.6V384c0,4.71,3.814,8.533,8.533,8.533h25.6v51.2H25.6c-14.114,0-25.6,11.486-25.6,25.6
			s11.486,25.6,25.6,25.6h375.467C462.234,494.933,512,445.167,512,384C512,369.886,500.514,358.4,486.4,358.4z M17.067,375.467
			v-84.651c26.104,3.755,46.754,24.414,50.517,50.517H34.133c-4.719,0-8.533,3.823-8.533,8.533c0,4.71,3.814,8.533,8.533,8.533
			h358.4v8.533c0,4.702-3.823,8.533-8.533,8.533H17.067z"/>
	</g>
</g>
<g>
</g>
<g>
</g>
<g>
</g>
<g>
</g>
<g>
</g>
<g>
</g>
<g>
</g>
<g>
</g>
<g>
</g>
<g>
</g>
<g>
</g>
<g>
</g>
<g>
</g>
<g>
</g>
<g>
</g>
</svg>
